{
	"installedPkgsCollection": "_pkglist_",
	"pkgIndexCollection": "_pkgindex_", 
	"pkgBasePathPrefix": "/opt/pkgs",
	"nemodb": "nemodb",
	"nemodbPath": "mongodb://localhost:27017/nemodb",
	"pkgIndexFile": "/etc/apt/sources.list.d/nemo.list",
	"launchType": "cloud",
	"usbPackagePathPrefix": "packages",
	"usbConfigPathPrefix": "configs",
  "manifestFileName": "manifest.json",
  "installRequestAttrs": [ "pkgname", "registry" ]

}
