{
	"port": 8000,
	"snowLocalDynamodbFilePath": "/etc/nemosnow",
  "dynamoDir": "./java",
	"javaLibDir": "DynamoDBLocal_lib",
	"javaJarFile": "DynamoDBLocal.jar",
  "scriptsDir": "./scripts",
	"resetTableScript": "init-table.sh"
}
