{
	"useThemeId": "hyundai-card-1k",
	"themes": [
    {
			"id": "skt-1k",
			"backgrounds": [
        {
					"pkgname": "skt.menu",
          "path": "/usr/bin/nemoback-ste",
					"layerId": "underlay",
          "param": {
            "config": "/opt/contents/skt/steback.item.skt"
          },
					"x": 0, "y": 0, "width": 1920, "height": 1080
        },
        {
					"pkgname": "skt.background",
          "path": "/usr/bin/nemoback-play",
          "layerId": "background",
					"param": {
						"_image": "/opt/pkgs/skt.background/backgrounds/background-1.png",
						"image": "/usr/share/steshell/backgrounds/background-1.png"
					},
          "x": 0, "y": 0, "width": 1920, "height": 1080
        }
      ],
			"layers": [ 
				{ "id": "overlay" },
				{ "id": "fullscreen" },
				{ "id": "service" },
				{ "id": "underlay" },
				{ "id": "background" }
			],
			"defaultLayerId": "service",
			"fullscreenLayerId": "fullscreen"
    },
    {
			"id": "skt-4k",
			"backgrounds": [
        {
					"pkgname": "skt.menu",
          "path": "/usr/bin/nemoback-ste",
					"layerId": "underlay",
          "param": {
            "config": "/opt/contents/skt/steback.item.skt"
          },
					"x": 0, "y": 0, "width": 3840, "height": 2160
        },
        {
					"pkgname": "skt.background",
          "path": "/usr/bin/nemoback-play",
          "layerId": "background",
					"param": {
						"image": "/opt/pkgs/skt.background/backgrounds/background-1.png"
					},
          "x": 0, "y": 0, "width": 3840, "height": 2160 
        }
      ],
			"layers": [ 
				{ "id": "overlay" },
				{ "id": "fullscreen" },
				{ "id": "service" },
				{ "id": "underlay" },
				{ "id": "background" }
			],
			"defaultLayerId": "service",
			"fullscreenLayerId": "fullscreen"
    },
    {
			"id": "lotte-card-1k",
			"backgrounds": [
        {
					"pkgname": "nemo.card",
          "path": "/opt/pkgs/nemo.card/exec",
					"layerId": "underlay",
					"param": {
						"_config": "@contents/lotte/card.conf",
						"config": "/opt/contents/lotte/card.conf"
					},
					"x": 0, "y": 0, "width": 1920, "height": 1080
        },
        {
					"pkgname": "nemo.background",
          "path": "/opt/pkgs/nemo.background/exec",
          "layerId": "background",
					"param": {
						"_config": "@contents/lotte/background.conf",
						"config": "/opt/contents/lotte/background.conf"
					},
          "x": 0, "y": 0, "width": 1920, "height": 1080
        }
      ],
			"layers": [ 
				{ "id": "overlay" },
				{ "id": "fullscreen" },
				{ "id": "service" },
				{ "id": "underlay" },
				{ "id": "background" }
			],
			"defaultLayerId": "service",
			"fullscreenLayerId": "fullscreen"
    },
    {
			"id": "lotte-card-4k",
			"backgrounds": [
        {
					"pkgname": "nemo.card",
          "path": "/opt/pkgs/nemo.card/exec",
					"layerId": "underlay",
					"param": {
						"config": "@contents/lotte/card.conf"
					},
					"x": 0, "y": 0, "width": 3840, "height": 2160
        },
        {
					"pkgname": "nemo.background",
          "path": "/opt/pkgs/nemo.background/exec",
          "layerId": "background",
					"param": {
						"config": "@contents/lotte/background.conf"
					},
          "x": 0, "y": 0, "width": 3840, "height": 2160
        }
      ],
			"layers": [ 
				{ "id": "overlay" },
				{ "id": "fullscreen" },
				{ "id": "service" },
				{ "id": "underlay" },
				{ "id": "background" }
			],
			"defaultLayerId": "service",
			"fullscreenLayerId": "fullscreen"
    },
    {
			"id": "hyundai-card-1k",
			"backgrounds": [
        {
					"pkgname": "nemo.card",
          "path": "/opt/pkgs/nemo.card/exec",
					"layerId": "underlay",
					"param": {
						"_config": "@contents/hyundai/card.conf",
						"config": "/opt/contents/hyundai/card.conf"
					},
					"x": 0, "y": 0, "width": 1920, "height": 1080
        },
        {
					"pkgname": "nemo.background",
          "path": "/opt/pkgs/nemo.background/exec",
          "layerId": "background",
					"param": {
						"_config": "@contents/hyundai/background.conf",
						"config": "/opt/contents/hyundai/background.conf"
					},
          "x": 0, "y": 0, "width": 1920, "height": 1080
        }
      ],
			"layers": [ 
				{ "id": "overlay" },
				{ "id": "fullscreen" },
				{ "id": "service" },
				{ "id": "underlay" },
				{ "id": "background" }
			],
			"defaultLayerId": "service",
			"fullscreenLayerId": "fullscreen"
    },
    {
			"id": "hyundai-card-4k",
			"backgrounds": [
        {
					"pkgname": "nemo.card",
          "path": "/opt/pkgs/nemo.card/exec",
					"layerId": "underlay",
					"param": {
						"config": "@contents/hyundai/card.conf"
					},
					"x": 0, "y": 0, "width": 3840, "height": 2160
        },
        {
					"pkgname": "nemo.background",
          "path": "/opt/pkgs/nemo.background/exec",
          "layerId": "background",
					"param": {
						"config": "@contents/hyundai/background.conf"
					},
          "x": 0, "y": 0, "width": 3840, "height": 2160
        }
      ],
			"layers": [ 
				{ "id": "overlay" },
				{ "id": "fullscreen" },
				{ "id": "service" },
				{ "id": "underlay" },
				{ "id": "background" }
			],
			"defaultLayerId": "service",
			"fullscreenLayerId": "fullscreen"
    },
    {
			"id": "sge-card-1k",
			"backgrounds": [
        {
					"pkgname": "nemo.card",
          "path": "/opt/pkgs/nemo.card/exec",
					"layerId": "underlay",
					"param": {
						"_config": "@contents/sge/card.conf",
						"config": "/opt/contents/sge/card.conf"
					},
					"x": 0, "y": 0, "width": 1920, "height": 1080
        },
        {
					"pkgname": "nemo.background",
          "path": "/opt/pkgs/nemo.background/exec",
          "layerId": "background",
					"param": {
						"_config": "@contents/sge/background.conf",
						"config": "/opt/contents/sge/background.conf"
					},
          "x": 0, "y": 0, "width": 1920, "height": 1080
        }
      ],
			"layers": [ 
				{ "id": "overlay" },
				{ "id": "fullscreen" },
				{ "id": "service" },
				{ "id": "underlay" },
				{ "id": "background" }
			],
			"defaultLayerId": "service",
			"fullscreenLayerId": "fullscreen"
    },
    {
			"id": "sge-card-4k",
			"backgrounds": [
        {
					"pkgname": "nemo.card",
          "path": "/opt/pkgs/nemo.card/exec",
					"layerId": "underlay",
					"param": {
						"config": "@contents/sge/card.conf"
					},
					"x": 0, "y": 0, "width": 3840, "height": 2160
        },
        {
					"pkgname": "nemo.background",
          "path": "/opt/pkgs/nemo.background/exec",
          "layerId": "background",
					"param": {
						"config": "@contents/sge/background.conf"
					},
          "x": 0, "y": 0, "width": 3840, "height": 2160
        }
      ],
			"layers": [ 
				{ "id": "overlay" },
				{ "id": "fullscreen" },
				{ "id": "service" },
				{ "id": "underlay" },
				{ "id": "background" }
			],
			"defaultLayerId": "service",
			"fullscreenLayerId": "fullscreen"
    },
    {
			"id": "karim-1k",
			"backgrounds": [
        {
					"pkgname": "nemo.karim",
          "path": "/opt/pkgs/nemo.karim/exec",
					"layerId": "underlay",
					"x": 0, "y": 0, "width": 1920, "height": 1080
        }
      ],
			"layers": [ 
				{ "id": "overlay" },
				{ "id": "fullscreen" },
				{ "id": "service" },
				{ "id": "underlay" },
				{ "id": "background" }
			],
			"defaultLayerId": "service",
			"fullscreenLayerId": "fullscreen"
    },
    {
			"id": "karim-4k",
			"backgrounds": [
        {
					"pkgname": "nemo.karim",
          "path": "/opt/pkgs/nemo.karim/exec",
					"layerId": "underlay",
					"x": 0, "y": 0, "width": 3840, "height": 2160
        }
      ],
			"layers": [ 
				{ "id": "overlay" },
				{ "id": "fullscreen" },
				{ "id": "service" },
				{ "id": "underlay" },
				{ "id": "background" }
			],
			"defaultLayerId": "service",
			"fullscreenLayerId": "fullscreen"
    },
    {
			"id": "munhak-1k",
			"backgrounds": [
        {
					"pkgname": "nemo.background",
          "path": "/opt/pkgs/nemo.background/exec",
					"layerId": "underlay_icon",
          "param": {
            "_config": "@contents/munhak/overlay.conf",
            "config": "/opt/contents/munhak/overlay.conf"
          },
					"x": 0, "y": 0, "width": 1920, "height": 1080
        },
        {
					"pkgname": "skt.menu",
          "path": "/usr/bin/nemoback-ste",
					"layerId": "underlay",
          "param": {
            "_config": "@contents/munhak/steback.item.munhak",
            "config": "/opt/contents/munhak/steback.item.munhak"
          },
					"x": 0, "y": 0, "width": 1920, "height": 1080
        },
        {
					"pkgname": "nemo.art",
          "path": "/usr/bin/nemoart",
          "layerId": "background",
					"param": {
						"busid": "/nemoart",
						"threads": 2,
						"_content": "@contents/munhak/background",
						"content": "/opt/contents/munhak/background",
						"replay": "repeat",
						"pick": false,
            "droprate": 0.0
					},
          "x": 0, "y": 0, "width": 1920, "height": 1080
        }
      ],
			"layers": [ 
				{ "id": "overlay" },
				{ "id": "fullscreen" },
				{ "id": "service" },
				{ "id": "underlay_icon" },
				{ "id": "underlay" },
				{ "id": "background" }
			],
			"defaultLayerId": "service",
			"fullscreenLayerId": "fullscreen"
    },
    {
			"id": "munhak-4k",
			"backgrounds": [
        {
					"pkgname": "nemo.background",
          "path": "/opt/pkgs/nemo.background/exec",
					"layerId": "underlay_icon",
          "param": {
            "config": "@contents/munhak/overlay.conf"
          },
					"x": 0, "y": 0, "width": 3840, "height": 2160
        },
        {
					"pkgname": "skt.menu",
          "path": "/usr/bin/nemoback-ste",
					"layerId": "underlay",
          "param": {
            "config": "@contents/munhak/steback.item.munhak"
          },
					"x": 0, "y": 0, "width": 3840, "height": 2160
        },
        {
					"pkgname": "nemo.art",
          "path": "/usr/bin/nemoart",
          "layerId": "background",
					"param": {
						"busid": "/nemoart",
						"threads": 2,
						"content": "@contents/munhak/background",
						"replay": "repeat",
						"pick": false,
            "droprate": 0.0
					},
          "x": 0, "y": 0, "width": 3840, "height": 2160
        }
      ],
			"layers": [ 
				{ "id": "overlay" },
				{ "id": "fullscreen" },
				{ "id": "service" },
				{ "id": "underlay_icon" },
				{ "id": "underlay" },
				{ "id": "background" }
			],
			"defaultLayerId": "service",
			"fullscreenLayerId": "fullscreen"
    }
  ]
}

