{
	"awsRegion": "ap-northeast-2",
  "swKeyFilePath": "/etc/nemosnow/swkey",
	"lambdaControlDeviceFuncName": "NemoSnowControlDevice",
	"lambdaSyncDeviceTableFuncName": "NemoSnowSyncDeviceTable",
  "installedPkgsCollection": "_pkglist_",
  "mandatoryPkgsCollection": "_mandatorypkgs_",
  "shellCollection": "_shell_",
  "themeCollection": "_theme_",
  "powerCollection": "_power_",
  "nemodbPath": "mongodb://localhost:27017/nemodb",
  "reservedInfraCollections": [
    "_pkglist_", "_pkgindex_", "_contentsync_", "_bigdata_",
    "_shell_", "_theme_", "_power_", "_mandatorypkgs_"
  ],
  "cloudModeUrl": "snow.nemoux.net",
  "remoteRegistryTableName": "Registry",
  "remoteRegistryInfraKeyName": "infra",
  "remoteRegistryDeviceKeyName": "device",
  "ppaUpdateTimeout": 60000,
  "minishell": {
    "systemdServiceName": "minishell",
    "nemobusdSocketPath": "/tmp/nemo.bus.0",
    "splashscreenServiceName": "splashscreen",
    "backgroundServiceName": "background",
    "daemonServiceName": "daemon",
    "requestCommandType": "service",
    "sourceName": "/nemosnow",
    "targetName": "/nemoshell",
    "stopRequest": "stop",
    "startRequest": "start",
    "cloudWaitCountByThemeShow": 3,
    "cloudWaitInterval": 3000
  },
  "dataDirname": "data",
  "ppaHashCheckerFileName": "ppa_hash_checker.sh",
  "mongodLockFilePath": "/var/lib/mongodb/mongod.lock",
  "aptLockFilePath": "/var/lib/apt/lists/lock"
}
